{"new_entries": {"has_next": false, "page": 1, "results": []}, "last_updated_data": "2023-12-28T23:20:53Z", "league": {"id": 85647, "name": "Downtown", "created": "2023-07-05T22:55:01.937622Z", "closed": false, "max_entries": null, "league_type": "x", "scoring": "c", "admin_entry": 98120, "start_event": 1, "code_privacy": "p", "has_cup": true, "cup_league": null, "rank": null}, "standings": {"has_next": true, "page": 1, "results": [{"id": 51508304, "event_total": 41, "player_name": "Ashlly Mols", "rank": 1, "last_rank": 1, "rank_sort": 1, "total": 1136, "entry": 6388931, "entry_name": "King in D North\ufffd"}, {"id": 29602314, "event_total": 45, "player_name": "Okesipe Abiodun", "rank": 2, "last_rank": 2, "rank_sort": 2, "total": 1123, "entry": 3960377, "entry_name": "St. Mac FC"}, {"id": 2830897, "event_total": 43, "player_name": "Emmanuel Okedele", "rank": 3, "last_rank": 5, "rank_sort": 3, "total": 1107, "entry": 98120, "entry_name": "Potters Touch"}, {"id": 2830994, "event_total": 41, "player_name": "Uncle Buzzey", "rank": 4, "last_rank": 4, "rank_sort": 4, "total": 1106, "entry": 293449, "entry_name": "Coyg"}, {"id": 6880386, "event_total": 40, "player_name": "Adedapo Adedire", "rank": 5, "last_rank": 6, "rank_sort": 5, "total": 1102, "entry": 1086398, "entry_name": "Sylarexx Fc"}, {"id": 30134018, "event_total": 49, "player_name": "damilare Adejoro", "rank": 6, "last_rank": 7, "rank_sort": 6, "total": 1099, "entry": 4006993, "entry_name": "The Mafia"}, {"id": 2831002, "event_total": 21, "player_name": "Dapo Okri", "rank": 7, "last_rank": 3, "rank_sort": 7, "total": 1090, "entry": 175583, "entry_name": "FC Baba Chukwudi"}, {"id": 3486667, "event_total": 45, "player_name": "Victor McEpha", "rank": 8, "last_rank": 11, "rank_sort": 8, "total": 1079, "entry": 563294, "entry_name": "McEpha United"}, {"id": 29692199, "event_total": 54, "player_name": "Akande Oladayo", "rank": 9, "last_rank": 20, "rank_sort": 9, "total": 1078, "entry": 3968042, "entry_name": "Danjoe FC"}, {"id": 7273266, "event_total": 40, "player_name": "Idara Ukpong", "rank": 10, "last_rank": 9, "rank_sort": 10, "total": 1078, "entry": 1145568, "entry_name": "Falobe FC"}, {"id": 86607539, "event_total": 50, "player_name": "Akeem Tijani", "rank": 11, "last_rank": 16, "rank_sort": 11, "total": 1077, "entry": 6380329, "entry_name": "Lonely At the Top"}, {"id": 29629530, "event_total": 38, "player_name": "Differential Team", "rank": 12, "last_rank": 9, "rank_sort": 12, "total": 1076, "entry": 3962660, "entry_name": "Differential FC"}, {"id": 24839160, "event_total": 39, "player_name": "Bukunmi Adelakun", "rank": 13, "last_rank": 12, "rank_sort": 13, "total": 1073, "entry": 213565, "entry_name": "PSABAT SC"}, {"id": 41813772, "event_total": 58, "player_name": "Demola Scott", "rank": 14, "last_rank": 36, "rank_sort": 14, "total": 1068, "entry": 5336861, "entry_name": "Na My Year Be This"}, {"id": 55519145, "event_total": 48, "player_name": "Adams Hafiz", "rank": 15, "last_rank": 26, "rank_sort": 15, "total": 1065, "entry": 6779013, "entry_name": "XVI FC"}, {"id": 29549609, "event_total": 49, "player_name": "Oladayo Akande", "rank": 16, "last_rank": 27, "rank_sort": 16, "total": 1064, "entry": 3955774, "entry_name": "Aubrey Dray FC"}, {"id": 25006025, "event_total": 35, "player_name": "Martins Omoniyi", "rank": 16, "last_rank": 15, "rank_sort": 17, "total": 1064, "entry": 3572212, "entry_name": "Bulldozers FC"}, {"id": 69448382, "event_total": 38, "player_name": "Andrew Oluwatomiwa", "rank": 18, "last_rank": 18, "rank_sort": 18, "total": 1064, "entry": 6570495, "entry_name": "Tommyand\u26a1"}, {"id": 2830942, "event_total": 32, "player_name": "Star Boy", "rank": 19, "last_rank": 13, "rank_sort": 19, "total": 1062, "entry": 456141, "entry_name": "Akaza Dono"}, {"id": 10644830, "event_total": 30, "player_name": "Gbogo Joko", "rank": 20, "last_rank": 14, "rank_sort": 20, "total": 1060, "entry": 1635237, "entry_name": "Jaygbee FC"}, {"id": 31621846, "event_total": 41, "player_name": "Progress Akintade", "rank": 21, "last_rank": 24, "rank_sort": 21, "total": 1060, "entry": 4145862, "entry_name": "PROGRESSS"}, {"id": 78531290, "event_total": 21, "player_name": "BUNMI Atijosan", "rank": 22, "last_rank": 8, "rank_sort": 22, "total": 1059, "entry": 669180, "entry_name": "BUNMI FC"}, {"id": 27787320, "event_total": 32, "player_name": "Nd Ezenekwe", "rank": 23, "last_rank": 17, "rank_sort": 23, "total": 1058, "entry": 3829907, "entry_name": "AllOutFc"}, {"id": 4407208, "event_total": 44, "player_name": "Aforijuku Emmanuel", "rank": 24, "last_rank": 30, "rank_sort": 24, "total": 1057, "entry": 700024, "entry_name": "Mr Scopex"}, {"id": 46884622, "event_total": 43, "player_name": "Mark Ibekwe", "rank": 25, "last_rank": 28, "rank_sort": 25, "total": 1056, "entry": 5910307, "entry_name": "Zigerion Fc"}, {"id": 30665264, "event_total": 52, "player_name": "Basit Olatunde", "rank": 26, "last_rank": 40, "rank_sort": 26, "total": 1056, "entry": 4050576, "entry_name": "Bst Fc"}, {"id": 42380046, "event_total": 43, "player_name": "coker sunkanmi", "rank": 27, "last_rank": 29, "rank_sort": 27, "total": 1056, "entry": 4834604, "entry_name": "Sujeyinc"}, {"id": 63650826, "event_total": 43, "player_name": "Chidera Victor", "rank": 28, "last_rank": 31, "rank_sort": 28, "total": 1055, "entry": 7572179, "entry_name": "Ragner Fc"}, {"id": 37157778, "event_total": 36, "player_name": "Olabami Daniel", "rank": 29, "last_rank": 25, "rank_sort": 29, "total": 1055, "entry": 4805585, "entry_name": "BIG BAM \ufffd"}, {"id": 6773917, "event_total": 35, "player_name": "Christian Ugochukwu", "rank": 29, "last_rank": 23, "rank_sort": 30, "total": 1055, "entry": 1070898, "entry_name": "w\u26bdrldbesfc3"}, {"id": 45579396, "event_total": 28, "player_name": "Castrol Lee", "rank": 31, "last_rank": 19, "rank_sort": 31, "total": 1053, "entry": 5748350, "entry_name": "Castrol"}, {"id": 7450900, "event_total": 29, "player_name": "Mayokun Dokunmu", "rank": 32, "last_rank": 22, "rank_sort": 32, "total": 1051, "entry": 1172179, "entry_name": "Ravers"}, {"id": 30361585, "event_total": 44, "player_name": "Yusuf Suleiman", "rank": 33, "last_rank": 41, "rank_sort": 33, "total": 1048, "entry": 4027607, "entry_name": "Corporate FC"}, {"id": 46034844, "event_total": 42, "player_name": "Ademola Akinbinuade", "rank": 34, "last_rank": 39, "rank_sort": 34, "total": 1047, "entry": 5812846, "entry_name": "denizenOfD"}, {"id": 2830974, "event_total": 36, "player_name": "moyosola junior", "rank": 35, "last_rank": 33, "rank_sort": 35, "total": 1047, "entry": 32133, "entry_name": "olympique mayonnaise"}, {"id": 6269087, "event_total": 40, "player_name": "okorie kachi", "rank": 36, "last_rank": 42, "rank_sort": 36, "total": 1044, "entry": 992871, "entry_name": "Odogwu FC"}, {"id": 2830904, "event_total": 36, "player_name": "Vicapo Awosika", "rank": 37, "last_rank": 38, "rank_sort": 37, "total": 1044, "entry": 124922, "entry_name": "Vicapo FC"}, {"id": 47841695, "event_total": 33, "player_name": "anthony ojukwu", "rank": 38, "last_rank": 35, "rank_sort": 38, "total": 1043, "entry": 6013821, "entry_name": "Megatron fc"}, {"id": 40964739, "event_total": 25, "player_name": "Olaoluwa Adenuga", "rank": 39, "last_rank": 21, "rank_sort": 39, "total": 1043, "entry": 890194, "entry_name": "lao"}, {"id": 19567742, "event_total": 50, "player_name": "Timilehin Opatoyinbo", "rank": 40, "last_rank": 50, "rank_sort": 40, "total": 1042, "entry": 2873232, "entry_name": "Timmy United FC"}, {"id": 3973879, "event_total": 30, "player_name": "BLESSING OPEYEMI", "rank": 41, "last_rank": 32, "rank_sort": 41, "total": 1041, "entry": 634702, "entry_name": "Bickz14"}, {"id": 6142722, "event_total": 38, "player_name": "Femi Sobodu", "rank": 42, "last_rank": 45, "rank_sort": 42, "total": 1039, "entry": 973439, "entry_name": "Chronicles Of VARnia"}, {"id": 2830911, "event_total": 36, "player_name": "Deji Adefala", "rank": 43, "last_rank": 44, "rank_sort": 43, "total": 1038, "entry": 24268, "entry_name": "\u00d8wlsandcigars"}, {"id": 2830934, "event_total": 26, "player_name": "Adedapo Bankole", "rank": 44, "last_rank": 33, "rank_sort": 44, "total": 1037, "entry": 18103, "entry_name": "BEADO FC"}, {"id": 38088427, "event_total": 31, "player_name": "Gbemileke David", "rank": 45, "last_rank": 37, "rank_sort": 45, "total": 1036, "entry": 4917316, "entry_name": "Aare Ika CF"}, {"id": 69351383, "event_total": 49, "player_name": "Tasie Ik", "rank": 46, "last_rank": 55, "rank_sort": 46, "total": 1034, "entry": 8020458, "entry_name": "LetThePoorBreathe"}, {"id": 15398492, "event_total": 49, "player_name": "Alexander Tiwaloluwa", "rank": 47, "last_rank": 53, "rank_sort": 47, "total": 1034, "entry": 2246822, "entry_name": "ANDER FC"}, {"id": 50876009, "event_total": 35, "player_name": "Tobechukwu Austin", "rank": 48, "last_rank": 46, "rank_sort": 48, "total": 1033, "entry": 6330187, "entry_name": "Kami no ishi"}, {"id": 69538744, "event_total": 43, "player_name": "Matthew Omoniyi", "rank": 49, "last_rank": 48, "rank_sort": 49, "total": 1032, "entry": 5493191, "entry_name": "FPL Juggernaut"}, {"id": 2831015, "event_total": 30, "player_name": "Kehinde Odugbayi", "rank": 50, "last_rank": 43, "rank_sort": 50, "total": 1032, "entry": 150479, "entry_name": "Keins\u2019 Stars"}]}}